Chapter 5 Part 4: mutate(), group_by()/summarize() | Ready for R: Notebook Reference
…
The smoke_complete dataset has already had this function applied to it, but let’s create a smaller example dataset where this wouldn’t be the case.

smoke_bad_colnames <- read_csv("data/smoke_bad_colnames.csv")

## Parsed with column specification:
## cols(
##   `primary diagnosis` = col_character(),
##   `tumor Stage` = col_character(),
##   `Age at Diagnosis` = col_double(),
##   vitalSTATUS = col_character()
## )

smoke_bad_colnames

## # A tibble: 1,152 x 4
##    `primary diagnosis` `tumor Stage` `Age at Diagnosis` vitalSTATUS
##    <chr>               <chr>                      <dbl> <chr>      
##  1 C34.1               stage ia                   24477 dead       
##  2 C34.1               stage ib                   26615 dead       
##  3 C34.3               stage ib                   28171 dead       
##  4 C34.1               stage ia                   27154 alive      
##  5 C34.1               stage iiia                 23370 alive      
##  6 C34.3               stage ib                   19025 dead       
##  7 C34.3               stage iv                   26938 dead       
##  8 C34.1               stage ib                   28430 dead       
##  9 C34.1               stage iib                  30435 dead       
## 10 C34.9               stage iv                   24019 dead       
## # ... with 1,142 more rows

Ack! These column names have spaces, inconsistent capitalization, which make these difficult to work with.

So let’s use clean_names() to fix this:

smoke_good_colnames <- smoke_bad_colnames %>%
    clean_names()

smoke_good_colnames

## # A tibble: 1,152 x 4
##    primary_diagnosis tumor_stage age_at_diagnosis vital_status
##    <chr>             <chr>                  <dbl> <chr>       
##  1 C34.1             stage ia               24477 dead        
##  2 C34.1             stage ib               26615 dead        
##  3 C34.3             stage ib               28171 dead        
##  4 C34.1             stage ia               27154 alive       
##  5 C34.1             stage iiia             23370 alive       
##  6 C34.3             stage ib               19025 dead        
##  7 C34.3             stage iv               26938 dead        
##  8 C34.1             stage ib               28430 dead        
##  9 C34.1             stage iib              30435 dead        
## 10 C34.9             stage iv               24019 dead        
## # ... with 1,142 more rows
…
