Chapter 4 Ready for R Part 3: Data Visualization and Data Manipulation | Ready for R: Notebook Reference
…
The pipe (%>%) function acts like the and then:

# Take my dataset smoke complete **and then**
smoke_complete %>%
  
#sort it by cigarettes_per day **and then**
  arrange(cigarettes_per_day) %>%

#filter it to only have males
  filter(gender == "male")

## # A tibble: 786 x 6
##    age_at_diagnosis tumor_stage cigarettes_per_day gender vital_status disease
##               <dbl> <chr>                    <dbl> <chr>  <chr>        <chr>  
##  1            18051 stage iii              0.00822 male   dead         BLCA   
##  2            29288 stage iii              0.0548  male   dead         BLCA   
##  3            18983 stage ii               0.0822  male   dead         BLCA   
##  4            22632 stage iiia             0.110   male   dead         LUSC   
##  5            20632 stage iib              0.110   male   alive        LUSC   
##  6            25579 stage iii              0.110   male   dead         BLCA   
##  7            22632 stage iiia             0.110   male   dead         LUSC   
##  8            20632 stage iib              0.110   male   alive        LUSC   
##  9            23156 stage i                0.137   male   dead         LUSC   
## 10            13867 stage ii               0.137   male   alive        BLCA   
## # ... with 776 more rows

You can think of a pipe as putting the output of one step as an input of another. These two statements are equivalent:

smoke_complete %>%
  arrange(cigarettes_per_day)

## # A tibble: 1,152 x 6
##    age_at_diagnosis tumor_stage  cigarettes_per_day gender vital_status disease
##               <dbl> <chr>                     <dbl> <chr>  <chr>        <chr>  
##  1            18051 stage iii               0.00822 male   dead         BLCA   
##  2            19847 not reported            0.0110  female alive        CESC   
##  3            14225 not reported            0.0219  female dead         CESC   
##  4            31258 not reported            0.0312  female alive        CESC   
##  5            16429 stage iii               0.0548  female dead         LUSC   
##  6            27449 stage ii                0.0548  female dead         LUSC   
##  7            29288 stage iii               0.0548  male   dead         BLCA   
##  8            15965 not reported            0.0548  female alive        CESC   
##  9            17465 not reported            0.0548  female dead         CESC   
## 10            15849 not reported            0.0548  female alive        CESC   
## # ... with 1,142 more rows

and

arrange(smoke_complete, cigarettes_per_day)

## # A tibble: 1,152 x 6
##    age_at_diagnosis tumor_stage  cigarettes_per_day gender vital_status disease
##               <dbl> <chr>                     <dbl> <chr>  <chr>        <chr>  
##  1            18051 stage iii               0.00822 male   dead         BLCA   
##  2            19847 not reported            0.0110  female alive        CESC   
##  3            14225 not reported            0.0219  female dead         CESC   
##  4            31258 not reported            0.0312  female alive        CESC   
##  5            16429 stage iii               0.0548  female dead         LUSC   
##  6            27449 stage ii                0.0548  female dead         LUSC   
##  7            29288 stage iii               0.0548  male   dead         BLCA   
##  8            15965 not reported            0.0548  female alive        CESC   
##  9            17465 not reported            0.0548  female dead         CESC   
## 10            15849 not reported            0.0548  female alive        CESC   
## # ... with 1,142 more rows
…
4.7.3 Sorting Data Frames using arrange()

Ok, we already have encountered arrange(). It’s a function that lets us sort a data.frame by a variable.

By default, it sorts in ascending order:

smoke_complete %>% 
  arrange(cigarettes_per_day)

## # A tibble: 1,152 x 6
##    age_at_diagnosis tumor_stage  cigarettes_per_day gender vital_status disease
##               <dbl> <chr>                     <dbl> <chr>  <chr>        <chr>  
##  1            18051 stage iii               0.00822 male   dead         BLCA   
##  2            19847 not reported            0.0110  female alive        CESC   
##  3            14225 not reported            0.0219  female dead         CESC   
##  4            31258 not reported            0.0312  female alive        CESC   
##  5            16429 stage iii               0.0548  female dead         LUSC   
##  6            27449 stage ii                0.0548  female dead         LUSC   
##  7            29288 stage iii               0.0548  male   dead         BLCA   
##  8            15965 not reported            0.0548  female alive        CESC   
##  9            17465 not reported            0.0548  female dead         CESC   
## 10            15849 not reported            0.0548  female alive        CESC   
## # ... with 1,142 more rows

To sort by descending order, you need to wrap the variable in the desc() function:

smoke_complete %>%
  arrange(desc(cigarettes_per_day))

## # A tibble: 1,152 x 6
##    age_at_diagnosis tumor_stage cigarettes_per_day gender vital_status disease
##               <dbl> <chr>                    <dbl> <chr>  <chr>        <chr>  
##  1            17635 stage iv                 40    male   dead         BLCA   
##  2            27708 stage ia                 13.2  male   dead         LUSC   
##  3            27708 stage ia                 13.2  male   dead         LUSC   
##  4            24477 stage ia                 11.0  male   dead         LUSC   
##  5            24477 stage ia                 11.0  male   dead         LUSC   
##  6            24713 stage iiia               10.5  male   dead         LUSC   
##  7            24713 stage iiia               10.5  male   dead         LUSC   
##  8            25646 stage ib                  9.86 male   alive        LUSC   
##  9            25646 stage ib                  9.86 male   alive        LUSC   
## 10            25506 stage ib                  8.88 male   alive        LUSC   
## # ... with 1,142 more rows

You can also arrange by multiple variables.

smoke_complete %>%
  arrange(desc(cigarettes_per_day),
          tumor_stage)

## # A tibble: 1,152 x 6
##    age_at_diagnosis tumor_stage cigarettes_per_day gender vital_status disease
##               <dbl> <chr>                    <dbl> <chr>  <chr>        <chr>  
##  1            17635 stage iv                 40    male   dead         BLCA   
##  2            27708 stage ia                 13.2  male   dead         LUSC   
##  3            27708 stage ia                 13.2  male   dead         LUSC   
##  4            24477 stage ia                 11.0  male   dead         LUSC   
##  5            24477 stage ia                 11.0  male   dead         LUSC   
##  6            24713 stage iiia               10.5  male   dead         LUSC   
##  7            24713 stage iiia               10.5  male   dead         LUSC   
##  8            25646 stage ib                  9.86 male   alive        LUSC   
##  9            25646 stage ib                  9.86 male   alive        LUSC   
## 10            25506 stage ib                  8.88 male   alive        LUSC   
## # ... with 1,142 more rows

Note that order of variables in arrange() matters!

smoke_complete %>%
  arrange(
    tumor_stage,
    desc(cigarettes_per_day)
          )

## # A tibble: 1,152 x 6
##    age_at_diagnosis tumor_stage  cigarettes_per_day gender vital_status disease
##               <dbl> <chr>                     <dbl> <chr>  <chr>        <chr>  
##  1            25220 not reported               3.12 female alive        CESC   
##  2            28873 not reported               3.07 female dead         CESC   
##  3            18773 not reported               2.90 female alive        CESC   
##  4            16231 not reported               2.85 female dead         CESC   
##  5            24059 not reported               2.74 female dead         CESC   
##  6            20302 not reported               2.74 female alive        CESC   
##  7            28826 not reported               2.47 male   dead         LUSC   
##  8            28826 not reported               2.47 male   dead         LUSC   
##  9            21520 not reported               2.19 female dead         CESC   
## 10            20207 not reported               2.19 female alive        CESC   
## # ... with 1,142 more rows

4.7.4 filter()ing our data

filter() is an extremely powerful function. It lets us subset our data according to specific criteria.

Let’s filter on a numeric variable, cigarettes_per_day:

smoke_complete %>%
  filter(cigarettes_per_day < 20)

## # A tibble: 1,151 x 6
##    age_at_diagnosis tumor_stage cigarettes_per_day gender vital_status disease
##               <dbl> <chr>                    <dbl> <chr>  <chr>        <chr>  
##  1            24477 stage ia                 11.0  male   dead         LUSC   
##  2            26615 stage ib                  2.19 male   dead         LUSC   
##  3            28171 stage ib                  1.64 female dead         LUSC   
##  4            27154 stage ia                  1.10 male   alive        LUSC   
##  5            23370 stage iiia                2.74 female alive        LUSC   
##  6            19025 stage ib                  1.37 male   dead         LUSC   
##  7            26938 stage iv                  1.37 male   dead         LUSC   
##  8            28430 stage ib                  1.64 male   dead         LUSC   
##  9            30435 stage iib                 2.19 male   dead         LUSC   
## 10            24019 stage iv                  1.37 male   dead         LUSC   
## # ... with 1,141 more rows

We can also filter on a category. But that does require us to know the values of that categorical variable.

smoke_complete %>%
  filter(tumor_stage == "stage iv")

## # A tibble: 91 x 6
##    age_at_diagnosis tumor_stage cigarettes_per_day gender vital_status disease
##               <dbl> <chr>                    <dbl> <chr>  <chr>        <chr>  
##  1            26938 stage iv                  1.37 male   dead         LUSC   
##  2            24019 stage iv                  1.37 male   dead         LUSC   
##  3            24624 stage iv                  2.74 male   dead         LUSC   
##  4            27455 stage iv                  3.56 male   dead         LUSC   
##  5            25688 stage iv                  2.41 male   alive        LUSC   
##  6            25286 stage iv                  2.74 male   dead         LUSC   
##  7            23323 stage iv                  3.78 male   dead         BLCA   
##  8            24428 stage iv                  3.40 male   dead         BLCA   
##  9            22271 stage iv                  2.19 male   alive        BLCA   
## 10            23927 stage iv                  1.32 male   dead         BLCA   
## # ... with 81 more rows
…
We can chain multiple criteria using the & (AND) or | (OR) operators. But we need to review a little logic before we do this.

If I wanted to return patients who were

male and stage iv,

I would want use an & to chain these criteria together:

gender == "male" & tumor_stage == "stage_iv"

smoke_complete %>%
  filter(gender == "male" & 
           tumor_stage == "stage iv")

## # A tibble: 75 x 6
##    age_at_diagnosis tumor_stage cigarettes_per_day gender vital_status disease
##               <dbl> <chr>                    <dbl> <chr>  <chr>        <chr>  
##  1            26938 stage iv                  1.37 male   dead         LUSC   
##  2            24019 stage iv                  1.37 male   dead         LUSC   
##  3            24624 stage iv                  2.74 male   dead         LUSC   
##  4            27455 stage iv                  3.56 male   dead         LUSC   
##  5            25688 stage iv                  2.41 male   alive        LUSC   
##  6            25286 stage iv                  2.74 male   dead         LUSC   
##  7            23323 stage iv                  3.78 male   dead         BLCA   
##  8            24428 stage iv                  3.40 male   dead         BLCA   
##  9            22271 stage iv                  2.19 male   alive        BLCA   
## 10            23927 stage iv                  1.32 male   dead         BLCA   
## # ... with 65 more rows

If I wanted patients who were

male or stage iv

I would use an | to chain these criteria together.

smoke_complete %>%
  filter(gender == "male" |
           tumor_stage == "stage iv")

## # A tibble: 802 x 6
##    age_at_diagnosis tumor_stage cigarettes_per_day gender vital_status disease
##               <dbl> <chr>                    <dbl> <chr>  <chr>        <chr>  
##  1            24477 stage ia                 11.0  male   dead         LUSC   
##  2            26615 stage ib                  2.19 male   dead         LUSC   
##  3            27154 stage ia                  1.10 male   alive        LUSC   
##  4            19025 stage ib                  1.37 male   dead         LUSC   
##  5            26938 stage iv                  1.37 male   dead         LUSC   
##  6            28430 stage ib                  1.64 male   dead         LUSC   
##  7            30435 stage iib                 2.19 male   dead         LUSC   
##  8            24019 stage iv                  1.37 male   dead         LUSC   
##  9            26813 stage iib                 2.74 male   alive        LUSC   
## 10            23972 stage ib                  2.19 male   alive        LUSC   
## # ... with 792 more rows

Think about it: which of the above two code blocks will return a larger number of patients?

4.7.6 More about Comparison and Logical Operators

This is a useful reference for all the different operators (both logical and comparison) that you can use: https://www.datamentor.io/r-programming/operator/

4.7.7 Selecting columns using select()

The final verb we’ll look at is select(). It allows us to select variables from our dataset:

smoke_complete %>%
  select(gender, tumor_stage)

## # A tibble: 1,152 x 2
##    gender tumor_stage
##    <chr>  <chr>      
##  1 male   stage ia   
##  2 male   stage ib   
##  3 female stage ib   
##  4 male   stage ia   
##  5 female stage iiia 
##  6 male   stage ib   
##  7 male   stage iv   
##  8 male   stage ib   
##  9 male   stage iib  
## 10 male   stage iv   
## # ... with 1,142 more rows

If we want to select everything but one variable, we can use a - in front of that variable.

smoke_complete %>%
  select(-gender)

## # A tibble: 1,152 x 5
##    age_at_diagnosis tumor_stage cigarettes_per_day vital_status disease
##               <dbl> <chr>                    <dbl> <chr>        <chr>  
##  1            24477 stage ia                 11.0  dead         LUSC   
##  2            26615 stage ib                  2.19 dead         LUSC   
##  3            28171 stage ib                  1.64 dead         LUSC   
##  4            27154 stage ia                  1.10 alive        LUSC   
##  5            23370 stage iiia                2.74 alive        LUSC   
##  6            19025 stage ib                  1.37 dead         LUSC   
##  7            26938 stage iv                  1.37 dead         LUSC   
##  8            28430 stage ib                  1.64 dead         LUSC   
##  9            30435 stage iib                 2.19 dead         LUSC   
## 10            24019 stage iv                  1.37 dead         LUSC   
## # ... with 1,142 more rows
…
