…
To refer to the entire first row of penguins, I can remove the second number. Note that the comma remains.

penguins[1, ]

## # A tibble: 1 x 8
##   species island bill_length_mm bill_depth_mm flipper_length_~ body_mass_g sex  
##   <fct>   <fct>           <dbl>         <dbl>            <int>       <int> <fct>
## 1 Adelie  Torge~           39.1          18.7              181        3750 male 
## # ... with 1 more variable: year <int>

To refer to the entire first column of penguins, I can remove the first number:

penguins[,1]

## # A tibble: 344 x 1
##    species
##    <fct>  
##  1 Adelie 
##  2 Adelie 
##  3 Adelie 
##  4 Adelie 
##  5 Adelie 
##  6 Adelie 
##  7 Adelie 
##  8 Adelie 
##  9 Adelie 
## 10 Adelie 
## # ... with 334 more rows
…
